{
  "process": "bank_b2ws",
  "columns_name": {
    "Marca": "marca",
    "Nome Fantasia": "nome_fantasia",
    "Data pedido": "data_pedido",
    "Data Pagamento": "data_pagamento",
    "Data Estorno": "data_estorno",
    "Data Liberação": "data_liberacao",
    "Data Prevista Pgto": "data_prevista_pgto",
    "Lançamento": "lancamento",
    "Entrega": "pedido_b2w_entrega",
    "Tipo": "tipo",
    "Status": "status",
    "Valor": "valor",
    "Parcela": "parcelas",
    "Meio Pgto": "meio_de_pagamento",
    "Modelo Financeiro": "modelo_financeiro",
    "Ref. Pedido": "ref_pedido"
  },
  "change_type_on_open": {
    "Entrega": "str"
  },
  "change_type": [
    {
      "column": "valor",
      "type": "str_eval",
      "command": "x.replace('.','').replace(',', '.')"
    },
    {
      "column": "valor",
      "type": "float"
    },
    {
      "column": "pedido_b2w_entrega",
      "type": "str_eval",
      "command": "x.replace(',','.')"
    },
    {
      "column": "pedido_b2w_entrega",
      "type": "str_eval",
      "command": "x.replace('.00','')"
    }
  ],
  "params": [
    {
      "query": "`marca`!='TTTTTTTTTTTTTTTTTTTTTTTTTTTTTTT'",
      "blueprint": [
        {
          "condition": "True",
          "id_order": "dic.get('pedido_b2w_entrega')",
          "id_code":"None",
          "reference":"None",
          "description":"self.trackcashRefferences.balance.get(msg.get('id_code'))",
          "date":"None if dic.get('data_prevista_pgto') == '' else datetime.datetime.strptime(dic.get('data_prevista_pgto'),'%d/%m/%Y').strftime('%Y-%m-%d - %H:%M:%S') if dic.get('data_prevista_pgto') != None else None",
          "installments":"dic.get('parcelas') if dic.get('parcelas') != '' else 1",
          "current_installment":"dic.get('current_installment',1)",
          "total":"round(dic.get('valor')*100)"
        }
      ],
      "sum_duplicates": {
        "filters": [
          "data_prevista_pgto",
          "pedido_b2w_entrega",
          "tipo",
          "parcelas",
          "meio_de_pagamento"
        ],
        "sum": [
          "valor"
        ]
      }
    }
  ]
}
